Technical Guidelines Series - Part 2
…
pop_2018 <- left_join(x = pop_2018, y = regions, by = "ISO3_CODE") %>% # Joins data
  drop_na()

The second step is to aggregate the data per IPBES regions and sub-regions. In our example, I calculate the toal population per region and per sub-region using the group_by() function within the tidyverse package.

pop_2018 <- pop_2018 %>% 
  group_by(Region) %>% # Grouping by regions
  mutate(region_pop = sum(Value)/1000) %>% # calculates total population (millions) per region
  ungroup() %>% 
  group_by(Sub_Region) %>% # Grouping by sub-region 
  mutate(sub_region_pop = sum(Value)/1000) %>% # calculates total population (millions) per sub-region
  ungroup() 
pop_2018

## # A tibble: 234 x 11
##    FAOST_CODE ISO3_CODE Area  Element  Year Unit   Value Region Sub_Region
##         <int> <chr>     <chr> <chr>   <int> <chr>  <dbl> <chr>  <chr>     
##  1          1 ARM       Arme~ Total ~  2018 1000~ 2.95e3 Europ~ Eastern E~
##  2          2 AFG       Afgh~ Total ~  2018 1000~ 3.72e4 Asia ~ South Asia
##  3          3 ALB       Alba~ Total ~  2018 1000~ 2.88e3 Europ~ Central a~
##  4          4 DZA       Alge~ Total ~  2018 1000~ 4.22e4 Africa North Afr~
##  5          5 ASM       Amer~ Total ~  2018 1000~ 5.55e1 Asia ~ Oceania   
##  6          6 AND       Ando~ Total ~  2018 1000~ 7.70e1 Europ~ Central a~
##  7          7 AGO       Ango~ Total ~  2018 1000~ 3.08e4 Africa Southern ~
##  8          8 ATG       Anti~ Total ~  2018 1000~ 9.63e1 Ameri~ Caribbean 
##  9          9 ARG       Arge~ Total ~  2018 1000~ 4.44e4 Ameri~ South Ame~
## 10         10 AUS       Aust~ Total ~  2018 1000~ 2.49e4 Asia ~ Oceania   
## # ... with 224 more rows, and 2 more variables: region_pop <dbl>,
## #   sub_region_pop <dbl>
…
